<?xml version="1.0" encoding="UTF-8" standalone="no"?>
<svg
   width="500"
   height="500"
   viewBox="0 0 500 500"
   version="1.1"
   xml:space="preserve"
   style="clip-rule:evenodd;fill-rule:evenodd;stroke-linejoin:round;stroke-miterlimit:1.41421"
   id="svg40"
   sodipodi:docname="klipper_stack.svg"
   inkscape:version="1.2.2 (b0a8486541, 2022-12-01)"
   inkscape:export-filename="klipper_stack-logo-small.png"
   inkscape:export-xdpi="50"
   inkscape:export-ydpi="50"
   xmlns:inkscape="http://www.inkscape.org/namespaces/inkscape"
   xmlns:sodipodi="http://sodipodi.sourceforge.net/DTD/sodipodi-0.dtd"
   xmlns="http://www.w3.org/2000/svg"
   xmlns:svg="http://www.w3.org/2000/svg"
   xmlns:rdf="http://www.w3.org/1999/02/22-rdf-syntax-ns#"
   xmlns:cc="http://creativecommons.org/ns#"
   xmlns:dc="http://purl.org/dc/elements/1.1/"><metadata
   id="metadata46"><rdf:RDF><cc:Work
       rdf:about=""><dc:format>image/svg+xml</dc:format><dc:type
         rdf:resource="http://purl.org/dc/dcmitype/StillImage" /></cc:Work></rdf:RDF></metadata><defs
   id="defs44">
        <clipPath
   clipPathUnits="userSpaceOnUse"
   id="clipPath2054"><path
     id="path2056"
     style="fill:none;stroke:#000000;stroke-width:1;stroke-miterlimit:4;stroke-dasharray:none"
     d="m 135.96672,88.548776 c 2.25678,-0.604694 4.63299,-0.604697 6.88977,5e-6 l -3.44488,26.166529 z"
     sodipodi:nodetypes="cccc" /></clipPath><clipPath
   clipPathUnits="userSpaceOnUse"
   id="clipPath2054-3"><path
     id="path2056-6"
     style="fill:none;stroke:#000000;stroke-width:1;stroke-miterlimit:4;stroke-dasharray:none"
     d="m 135.96672,88.548776 c 2.25678,-0.604694 4.63299,-0.604697 6.88977,5e-6 l -3.44488,26.166529 z"
     sodipodi:nodetypes="cccc" /></clipPath><clipPath
   clipPathUnits="userSpaceOnUse"
   id="clipPath2054-6"><path
     id="path2056-2"
     style="fill:none;stroke:#000000;stroke-width:1;stroke-miterlimit:4;stroke-dasharray:none"
     d="m 135.96672,88.548776 c 2.25678,-0.604694 4.63299,-0.604697 6.88977,5e-6 l -3.44488,26.166529 z"
     sodipodi:nodetypes="cccc" /></clipPath><filter
   style="color-interpolation-filters:sRGB"
   inkscape:label="Drop Shadow"
   id="filter1105"
   x="-0.034834255"
   y="-0.0090157595"
   width="1.0841829"
   height="1.0217881"><feFlood
     flood-opacity="0.666667"
     flood-color="rgb(0,0,0)"
     result="flood"
     id="feFlood1095" /><feComposite
     in="SourceGraphic"
     in2="flood"
     operator="in"
     result="composite1"
     id="feComposite1097" /><feGaussianBlur
     in="composite1"
     stdDeviation="0.1"
     result="blur"
     id="feGaussianBlur1099" /><feOffset
     dx="0.1"
     dy="0.1"
     result="offset"
     id="feOffset1101" /><feComposite
     in="SourceGraphic"
     in2="offset"
     operator="over"
     result="composite2"
     id="feComposite1103" /></filter></defs><sodipodi:namedview
   pagecolor="#ffffff"
   bordercolor="#666666"
   borderopacity="1"
   objecttolerance="10"
   gridtolerance="10"
   guidetolerance="10"
   inkscape:pageopacity="0"
   inkscape:pageshadow="2"
   inkscape:window-width="1874"
   inkscape:window-height="1051"
   id="namedview42"
   showgrid="false"
   inkscape:zoom="0.67175144"
   inkscape:cx="-58.801511"
   inkscape:cy="232.22875"
   inkscape:window-x="0"
   inkscape:window-y="0"
   inkscape:window-maximized="1"
   inkscape:current-layer="svg40"
   showguides="false"
   showborder="false"
   inkscape:showpageshadow="0"
   inkscape:pagecheckerboard="0"
   inkscape:deskcolor="#d1d1d1"><inkscape:grid
     type="xygrid"
     id="grid905"
     originx="0"
     originy="0" /></sodipodi:namedview>
    <g
   id="g201"
   transform="matrix(0.73979255,0,0,0.73979255,73.26492,64.581572)"><path
     style="fill:#c83737;fill-opacity:1;stroke-width:2.62643"
     d="M 17.365823,453.43958 164.85952,308.48887 162.31652,244.914 V 196.5971 L 17.365823,51.646388 h -68.66087 v 2.54299 L 141.97257,253.81448 -51.295047,450.89659 v 2.54299 z"
     id="path696"
     inkscape:connector-curvature="0"
     sodipodi:nodetypes="ccccccccccc" /><g
     transform="matrix(-2.5429949,0,0,-2.5429949,373.38538,1516.2894)"
     id="g700">
                <path
   d="m 83.041215,464.92108 h 0.001 l -0.04211,27.03092 h 11 l 73.000005,-74 v 14.301 l -63,64.199 63,65.5 v 14 l -73.000002,-75 h -13 c -2,0 -4,-2 -4,-4 h -2 v -33 h 2 c 0,-1 1,-2 3.00004,-2 1.99996,0 2.99996,1 2.99996,2 z"
   style="fill:#e6e6e6;fill-opacity:1"
   id="path698"
   inkscape:connector-curvature="0"
   sodipodi:nodetypes="cccccccccccccccccc" />
            </g><path
     style="fill:#4170c0;fill-opacity:1;stroke-width:2.62643"
     d="m 460.4305,49.103398 -147.4937,144.950712 2.543,63.57487 v 48.3169 l 144.9507,144.95071 h 68.66087 V 448.3536 L 335.82375,248.7285 529.09137,51.646388 v -2.54299 z"
     id="path8"
     inkscape:connector-curvature="0"
     sodipodi:nodetypes="ccccccccccc" /><g
     transform="matrix(2.5429949,0,0,2.5429949,104.41094,-1013.7464)"
     id="g17">
                <path
   d="m 83.041215,464.92108 h 0.001 l -0.04211,27.03092 h 11 l 73.000005,-74 v 14.301 l -63,64.199 63,65.5 v 14 l -73.000002,-75 h -13 c -2,0 -4,-2 -4,-4 h -2 v -33 h 2 c 0,-1 1,-2 3.00004,-2 1.99996,0 2.99996,1 2.99996,2 z"
   style="fill:#e6e6e6;fill-opacity:1"
   id="path15"
   inkscape:connector-curvature="0"
   sodipodi:nodetypes="cccccccccccccccccc" />
            </g><path
     style="clip-rule:evenodd;fill:#888888;fill-opacity:1;fill-rule:evenodd;stroke-width:2.62643;stroke-linejoin:round;stroke-miterlimit:1.41421"
     d="m 440.4305,472.16809 -144.9507,-147.49371 -63.57488,2.543 h -48.3169 L 38.637313,472.16809 v 68.66086 h 2.543 L 240.80541,347.56134 437.88751,540.82895 h 2.54299 z"
     id="path8-5"
     inkscape:connector-curvature="0"
     sodipodi:nodetypes="ccccccccccc" /><g
     transform="matrix(0,2.5429949,-2.5429949,0,1503.2802,116.1485)"
     id="g17-3"
     style="clip-rule:evenodd;fill-rule:evenodd;stroke-linejoin:round;stroke-miterlimit:1.41421">
                <path
   d="m 83.041215,464.92108 h 0.001 l -0.04211,27.03092 h 11 l 73.000005,-74 v 14.301 l -63,64.199 63,65.5 v 14 l -73.000002,-75 h -13 c -2,0 -4,-2 -4,-4 h -2 v -33 h 2 c 0,-1 1,-2 3.00004,-2 1.99996,0 2.99996,1 2.99996,2 z"
   style="fill:#e6e6e6;fill-opacity:1"
   id="path15-5"
   inkscape:connector-curvature="0"
   sodipodi:nodetypes="cccccccccccccccccc" />
            </g><path
     style="clip-rule:evenodd;fill:#68329a;fill-opacity:1;fill-rule:evenodd;stroke-width:2.62643;stroke-linejoin:round;stroke-miterlimit:1.41421"
     d="M 37.365813,29.103398 182.31652,176.5971 245.89139,174.05411 H 294.2083 L 439.15901,29.103398 v -68.660864 h -2.543 L 236.99091,153.71017 39.908813,-39.557466 h -2.543 z"
     id="path8-3"
     inkscape:connector-curvature="0"
     sodipodi:nodetypes="ccccccccccc" /><g
     transform="matrix(0,-2.5429949,2.5429949,0,-1025.484,385.12289)"
     id="g17-6"
     style="clip-rule:evenodd;fill-rule:evenodd;stroke-linejoin:round;stroke-miterlimit:1.41421">
                <path
   d="m 83.041215,464.92108 h 0.001 l -0.04211,27.03092 h 11 l 73.000005,-74 v 14.301 l -63,64.199 63,65.5 v 14 l -73.000002,-75 h -13 c -2,0 -4,-2 -4,-4 h -2 v -33 h 2 c 0,-1 1,-2 3.00004,-2 1.99996,0 2.99996,1 2.99996,2 z"
   style="fill:#e6e6e6;fill-opacity:1"
   id="path15-7"
   inkscape:connector-curvature="0"
   sodipodi:nodetypes="cccccccccccccccccc" />
            </g></g>
</svg>
